// Jest Snapshot v1, https://goo.gl/fbAQLP

exports[`test actions matches snapshot 1`] = `Array []`;

exports[`test events matches snapshot 1`] = `Array []`;

exports[`test matches snapshot 1`] = `
Object {
  "@context": "https://iot.mozilla.org/schemas",
  "@type": Array [
    "Thing",
  ],
  "actions": Object {},
  "base": "http://localhost:8000/",
  "description": "Performs an addition of two numbers: A + B = Y",
  "events": Object {},
  "id": "##redatcted##",
  "links": "##redacted##",
  "properties": Object {
    "a": Object {
      "description": "First input",
      "links": Array [
        Object {
          "href": "/properties/a",
          "rel": "property",
        },
      ],
      "title": "A",
      "type": "number",
    },
    "b": Object {
      "description": "Second input",
      "links": Array [
        Object {
          "href": "/properties/b",
          "rel": "property",
        },
      ],
      "title": "B",
      "type": "number",
    },
    "y": Object {
      "description": "The result",
      "links": Array [
        Object {
          "href": "/properties/y",
          "rel": "property",
        },
      ],
      "readOnly": true,
      "title": "Y",
      "type": "number",
    },
  },
  "security": "nosec_sc",
  "securityDefinitions": Object {
    "nosec_sc": Object {
      "scheme": "nosec",
    },
  },
  "title": "Math: Add",
}
`;

exports[`test properties matches snapshot 1`] = `
Object {
  "a": 0,
  "b": 0,
  "y": 0,
}
`;
